…
Publication volume

``` r
pub_volume <- jn_df %>% 
  select(-license_refs) %>%
  unnest(year_published) %>% 
  unnest(issn) %>%
  inner_join(issn_variants, by = "issn") %>%
  select(year = .id, articles = V1, jn_code) %>%
  distinct() %>%
  inner_join(jn_wiley, by = "jn_code")
pub_volume
```

    ## # A tibble: 50 x 6
    ##    year  articles jn_code journal_title                  e_issn    oa_mode 
    ##    <chr>    <int> <chr>   <chr>                          <chr>     <chr>   
    ##  1 2017       210 MAPS    Meteoritics & Planetary Scien… 1945-5100 hybrid …
    ##  2 2019       196 MAPS    Meteoritics & Planetary Scien… 1945-5100 hybrid …
    ##  3 2016       191 MAPS    Meteoritics & Planetary Scien… 1945-5100 hybrid …
    ##  4 2018       181 MAPS    Meteoritics & Planetary Scien… 1945-5100 hybrid …
    ##  5 2015       146 MAPS    Meteoritics & Planetary Scien… 1945-5100 hybrid …
    ##  6 2017       234 MEE3    Methods in Ecology and Evolut… 2041-210X hybrid …
    ##  7 2019       215 MEE3    Methods in Ecology and Evolut… 2041-210X hybrid …
    ##  8 2016       195 MEE3    Methods in Ecology and Evolut… 2041-210X hybrid …
    ##  9 2015       184 MEE3    Methods in Ecology and Evolut… 2041-210X hybrid …
    ## 10 2018       183 MEE3    Methods in Ecology and Evolut… 2041-210X hybrid …
    ## # … with 40 more rows
…
  unnest(issn) %>%
    inner_join(issn_variants, by = "issn") %>%
  select(license_ref = .id, articles = V1, jn_code, issn) %>%
  distinct() %>%
  inner_join(jn_wiley, by = "jn_code") %>%
  mutate(hybrid_license = ifelse(grepl(
    "creativecommons",
    license_ref
  ), TRUE, FALSE))  %>%
  filter(hybrid_license == TRUE, oa_mode == "hybrid oa") %>%
  nest(issn = c(issn))
license_jns 
```

    ## # A tibble: 23 x 8
    ##    license_ref articles jn_code journal_title e_issn oa_mode hybrid_license
    ##    <chr>          <int> <chr>   <chr>         <chr>  <chr>   <lgl>         
    ##  1 http://cre…       49 MAPS    Meteoritics … 1945-… hybrid… TRUE          
    ##  2 http://cre…        9 MAPS    Meteoritics … 1945-… hybrid… TRUE          
    ##  3 http://cre…        6 MAPS    Meteoritics … 1945-… hybrid… TRUE          
    ##  4 http://cre…      117 MEE3    Methods in E… 2041-… hybrid… TRUE          
    ##  5 http://cre…       18 MEE3    Methods in E… 2041-… hybrid… TRUE          
    ##  6 http://cre…       12 MEE3    Methods in E… 2041-… hybrid… TRUE          
    ##  7 http://cre…        2 MECA    Metroeconomi… 1467-… hybrid… TRUE          
    ##  8 http://cre…        7 MIM     Microbiology… 1348-… hybrid… TRUE          
    ##  9 http://cre…        3 MIM     Microbiology… 1348-… hybrid… TRUE          
    ## 10 http://cre…        2 MIM     Microbiology… 1348-… hybrid… TRUE          
    ## # … with 13 more rows, and 1 more variable: issn <list<df[,1]>>
…
